{"schema":"1.0","catalog":"movie_crime","generatedAt":"2026-04-15T05:16:43Z","page":10,"totalPages":10,"totalItems":18009,"itemsPerPage":2000,"itemsOnPage":9,"hasNext":false,"hasPrev":true,"nextUrl":null,"prevUrl":"https://raw.githubusercontent.com/shade-sdev/shadestream/refs/heads/master/catalog/movie_crime/page_9.json","items":[{"id":"tt37037802","name":"Slasher: The Missing File","releaseInfo":"2026","imdbRating":"7.3","genres":["Crime","Horror","Mystery"],"poster":"https://images.metahub.space/poster/small/tt37037802/img","type":"movie"},{"id":"tt37547195","name":"In a Cold Vein","releaseInfo":"2025","imdbRating":"6.4","genres":["Crime","Thriller"],"poster":"https://images.metahub.space/poster/small/tt37547195/img","type":"movie"},{"id":"tt38672229","name":"Game Khatam","releaseInfo":"2025","imdbRating":"7.9","genres":["Action","Crime","Thriller"],"poster":"https://images.metahub.space/poster/small/tt38672229/img","type":"movie"},{"id":"tt38796175","name":"Die by Law","releaseInfo":"2025","imdbRating":"5.9","genres":["Action","Crime","Drama"],"poster":"https://images.metahub.space/poster/small/tt38796175/img","type":"movie"},{"id":"tt38876318","name":"Trai Tim Que Quat","releaseInfo":"2025","imdbRating":"6.9","genres":["Crime","Drama","Thriller"],"poster":"https://images.metahub.space/poster/small/tt38876318/img","type":"movie"},{"id":"tt39061882","name":"Gotya Gangster","releaseInfo":"2025","imdbRating":"4.2","genres":["Comedy","Crime","Drama"],"poster":"https://images.metahub.space/poster/small/tt39061882/img","type":"movie"},{"id":"tt39514054","name":"Dabesh","releaseInfo":"2026","imdbRating":"7.2","genres":["Action","Crime"],"poster":"https://images.metahub.space/poster/small/tt39514054/img","type":"movie"},{"id":"tt40703172","name":"Policë për jetë","releaseInfo":"2026","imdbRating":"7.5","genres":["Action","Comedy","Crime"],"poster":"https://images.metahub.space/poster/small/tt40703172/img","type":"movie"},{"id":"tt6802432","name":"Papagaios","releaseInfo":"2025","imdbRating":"7.8","genres":["Crime","Thriller"],"poster":"https://images.metahub.space/poster/small/tt6802432/img","type":"movie"}]}