{"schema":"1.0","catalog":"movie_documentary","generatedAt":"2026-04-13T16:17:26Z","page":8,"totalPages":8,"totalItems":14121,"itemsPerPage":2000,"itemsOnPage":121,"hasNext":false,"hasPrev":true,"nextUrl":null,"prevUrl":"https://raw.githubusercontent.com/shadestream/shadestream/master/catalog/movie_documentary/page_7.json","items":[{"id":"tt37172278","name":"Noah Kahan: Out of Body","releaseInfo":"2026","imdbRating":"8.0","genres":["Documentary","Music"],"poster":"https://images.metahub.space/poster/small/tt37172278/img","type":"movie"},{"id":"tt37180090","name":"The Greek Experiment","releaseInfo":"2025","imdbRating":"7.3","genres":["Documentary"],"poster":"https://images.metahub.space/poster/small/tt37180090/img","type":"movie"},{"id":"tt37347979","name":"Spectacular by Comparison","releaseInfo":"2026","imdbRating":"7.6","genres":["Comedy","Documentary","Drama"],"poster":"https://images.metahub.space/poster/small/tt37347979/img","type":"movie"},{"id":"tt37480824","name":"Paul Cézanne Pionnier de l'art moderne","releaseInfo":"2025","imdbRating":"6.5","genres":["Documentary"],"poster":"https://images.metahub.space/poster/small/tt37480824/img","type":"movie"},{"id":"tt37539172","name":"The Power of Chi","releaseInfo":"2025","imdbRating":"8.9","genres":["Documentary","Sport"],"poster":"https://images.metahub.space/poster/small/tt37539172/img","type":"movie"},{"id":"tt37539346","name":"Food Delivery: Fresh from the West Philippine Sea","releaseInfo":"2025","imdbRating":"8.9","genres":["Documentary"],"poster":"https://images.metahub.space/poster/small/tt37539346/img","type":"movie"},{"id":"tt37660875","name":"Nino. 18 Giorni","releaseInfo":"2025","imdbRating":"7.8","genres":["Documentary"],"poster":"https://images.metahub.space/poster/small/tt37660875/img","type":"movie"},{"id":"tt37675876","name":"Memory of the Forgotten","releaseInfo":"2025","imdbRating":"1.9","genres":["Documentary"],"poster":"https://images.metahub.space/poster/small/tt37675876/img","type":"movie"},{"id":"tt37890895","name":"One Hundred Thousand Lions","releaseInfo":"2025","imdbRating":"1.9","genres":["Documentary"],"poster":"https://images.metahub.space/poster/small/tt37890895/img","type":"movie"},{"id":"tt37955041","name":"Dr.Hossein fatemi","releaseInfo":"2025","imdbRating":"2.0","genres":["Biography","Documentary"],"poster":"https://images.metahub.space/poster/small/tt37955041/img","type":"movie"},{"id":"tt38036486","name":"Tout va bien","releaseInfo":"2026","imdbRating":"7.1","genres":["Documentary"],"poster":"https://images.metahub.space/poster/small/tt38036486/img","type":"movie"},{"id":"tt38040138","name":"The Snake and the Whale","releaseInfo":"2025","imdbRating":"8.9","genres":["Documentary"],"poster":"https://images.metahub.space/poster/small/tt38040138/img","type":"movie"},{"id":"tt38056739","name":"4tro El3mentos","releaseInfo":"2025","imdbRating":"1.0","genres":["Documentary"],"poster":"https://images.metahub.space/poster/small/tt38056739/img","type":"movie"},{"id":"tt38066118","name":"Highway 99: A Double Album","releaseInfo":"2025","imdbRating":"7.7","genres":["Biography","Documentary","Music"],"poster":"https://images.metahub.space/poster/small/tt38066118/img","type":"movie"},{"id":"tt38071032","name":"Encontrando a Felipa Poot","releaseInfo":"2026","imdbRating":"1.7","genres":["Documentary"],"poster":"https://images.metahub.space/poster/small/tt38071032/img","type":"movie"},{"id":"tt38349498","name":"El Tercer Espacio","releaseInfo":"2025","imdbRating":"8.7","genres":["Documentary"],"poster":"https://images.metahub.space/poster/small/tt38349498/img","type":"movie"},{"id":"tt38364521","name":"Narrating Through Lines","releaseInfo":"2025","imdbRating":"1.0","genres":["Documentary"],"poster":"https://images.metahub.space/poster/small/tt38364521/img","type":"movie"},{"id":"tt38547622","name":"Mufote","releaseInfo":"2025","imdbRating":"1.9","genres":["Documentary"],"poster":"https://images.metahub.space/poster/small/tt38547622/img","type":"movie"},{"id":"tt38552321","name":"Hoop in de Hoep","releaseInfo":"2025","imdbRating":"7.3","genres":["Documentary"],"poster":"https://images.metahub.space/poster/small/tt38552321/img","type":"movie"},{"id":"tt38627846","name":"Cuvari tradicije","releaseInfo":"2025","imdbRating":"9.2","genres":["Documentary"],"poster":"https://images.metahub.space/poster/small/tt38627846/img","type":"movie"},{"id":"tt38630277","name":"Chronique d'une ville","releaseInfo":"2025","imdbRating":"7.4","genres":["Documentary"],"poster":"https://images.metahub.space/poster/small/tt38630277/img","type":"movie"},{"id":"tt38633147","name":"The Trial of Alec Baldwin","releaseInfo":"2025","imdbRating":"8.5","genres":["Documentary"],"poster":"https://images.metahub.space/poster/small/tt38633147/img","type":"movie"},{"id":"tt38755722","name":"The Truth About RFK Jr.","releaseInfo":"2025","imdbRating":"7.0","genres":["Documentary"],"poster":"https://images.metahub.space/poster/small/tt38755722/img","type":"movie"},{"id":"tt38777081","name":"The McFly Story","releaseInfo":"2025","imdbRating":"8.7","genres":["Documentary"],"poster":"https://images.metahub.space/poster/small/tt38777081/img","type":"movie"},{"id":"tt38779928","name":"Alien Arrival the Hidden Past","releaseInfo":"2026","imdbRating":"1.8","genres":["Documentary"],"poster":"https://images.metahub.space/poster/small/tt38779928/img","type":"movie"},{"id":"tt38866965","name":"Todos somos Gaza","releaseInfo":"2025","imdbRating":"5.8","genres":["Documentary"],"poster":"https://images.metahub.space/poster/small/tt38866965/img","type":"movie"},{"id":"tt38891401","name":"Roman Gibi","releaseInfo":"2025","imdbRating":"8.8","genres":["Documentary"],"poster":"https://images.metahub.space/poster/small/tt38891401/img","type":"movie"},{"id":"tt38909526","name":"Breaking Enigma: A World War II Game Changer","releaseInfo":"2025","imdbRating":"6.9","genres":["Documentary","History"],"poster":"https://images.metahub.space/poster/small/tt38909526/img","type":"movie"},{"id":"tt38943005","name":"Weltkarriere einer Lüge - Die Protokolle der Weisen von Zion","releaseInfo":"2025","imdbRating":"7.5","genres":["Documentary"],"poster":"https://images.metahub.space/poster/small/tt38943005/img","type":"movie"},{"id":"tt39130987","name":"Stalin's Cola","releaseInfo":"2025","imdbRating":"5.8","genres":["Documentary"],"poster":"https://images.metahub.space/poster/small/tt39130987/img","type":"movie"},{"id":"tt39140112","name":"Véronique","releaseInfo":"2025","imdbRating":"7.5","genres":["Documentary"],"poster":"https://images.metahub.space/poster/small/tt39140112/img","type":"movie"},{"id":"tt39163347","name":"Once Upon a Time in Harlem","releaseInfo":"2026","imdbRating":"8.0","genres":["Documentary"],"poster":"https://images.metahub.space/poster/small/tt39163347/img","type":"movie"},{"id":"tt39303661","name":"Mondri(a)an","releaseInfo":"2025","imdbRating":"6.0","genres":["Documentary"],"poster":"https://images.metahub.space/poster/small/tt39303661/img","type":"movie"},{"id":"tt39311601","name":"Untouchables: The Story of St. Benedict's Fencing","releaseInfo":"2026","imdbRating":"7.8","genres":["Biography","Documentary"],"poster":"https://images.metahub.space/poster/small/tt39311601/img","type":"movie"},{"id":"tt39762212","name":"Intelligence Rising","releaseInfo":"2026","imdbRating":"6.4","genres":["Documentary"],"poster":"https://images.metahub.space/poster/small/tt39762212/img","type":"movie"},{"id":"tt39818559","name":"Ozdemir Bayraktar: Bu Dunyadan Bir Akinci Gecti","releaseInfo":"2026","imdbRating":"6.5","genres":["Documentary"],"poster":"https://images.metahub.space/poster/small/tt39818559/img","type":"movie"},{"id":"tt39949875","name":"Motel Paradise","releaseInfo":"2026","imdbRating":"1.8","genres":["Documentary"],"poster":"https://images.metahub.space/poster/small/tt39949875/img","type":"movie"},{"id":"tt40444868","name":"James Acaster: Cinemagoers Welcome","releaseInfo":"2026","imdbRating":"8.4","genres":["Documentary"],"poster":"https://images.metahub.space/poster/small/tt40444868/img","type":"movie"},{"id":"tt40887945","name":"PFAS, Our Forever Poisons","releaseInfo":"2026","imdbRating":"7.4","genres":["Documentary"],"poster":"https://images.metahub.space/poster/small/tt40887945/img","type":"movie"},{"id":"tt4548038","name":"Good Tough Kid","releaseInfo":"2025","imdbRating":"9.0","genres":["Biography","Documentary"],"poster":"https://images.metahub.space/poster/small/tt4548038/img","type":"movie"},{"id":"tt6384130","name":"Amílcar","releaseInfo":"2025","imdbRating":"6.7","genres":["Documentary"],"poster":"https://images.metahub.space/poster/small/tt6384130/img","type":"movie"},{"id":"tt7696110","name":"The Heart Revolution","releaseInfo":"2025","imdbRating":"8.7","genres":["Documentary"],"poster":"https://images.metahub.space/poster/small/tt7696110/img","type":"movie"},{"id":"tt13839522","name":"The New Jews","releaseInfo":"2025","imdbRating":"5.0","genres":["Documentary"],"poster":"https://images.metahub.space/poster/small/tt13839522/img","type":"movie"},{"id":"tt24801574","name":"Of Mud and Blood","releaseInfo":"2025","imdbRating":"8.0","genres":["Documentary"],"poster":"https://images.metahub.space/poster/small/tt24801574/img","type":"movie"},{"id":"tt29870528","name":"Siksikakowan: The Blackfoot Man","releaseInfo":"2025","imdbRating":"7.7","genres":["Documentary"],"poster":"https://images.metahub.space/poster/small/tt29870528/img","type":"movie"},{"id":"tt30276694","name":"Ping Pong Paradise","releaseInfo":"2025","imdbRating":"7.8","genres":["Documentary"],"poster":"https://images.metahub.space/poster/small/tt30276694/img","type":"movie"},{"id":"tt30832175","name":"Ishiro Honda: Memoirs of a Film Director","releaseInfo":"2025","imdbRating":"6.6","genres":["Documentary"],"poster":"https://images.metahub.space/poster/small/tt30832175/img","type":"movie"},{"id":"tt30832596","name":"Four Rational People","releaseInfo":"2026","imdbRating":"8.7","genres":["Documentary"],"poster":"https://images.metahub.space/poster/small/tt30832596/img","type":"movie"},{"id":"tt31407172","name":"La fábula de la tortuga y la flor","releaseInfo":"2025","imdbRating":"7.9","genres":["Documentary"],"poster":"https://images.metahub.space/poster/small/tt31407172/img","type":"movie"},{"id":"tt31550000","name":"Revolution 3.0","releaseInfo":"2025","imdbRating":"7.9","genres":["Documentary"],"poster":"https://images.metahub.space/poster/small/tt31550000/img","type":"movie"},{"id":"tt31850033","name":"Not One Drop of Blood","releaseInfo":"2025","imdbRating":"7.2","genres":["Documentary"],"poster":"https://images.metahub.space/poster/small/tt31850033/img","type":"movie"},{"id":"tt32986423","name":"Breathe Freedom: the John McNeil story","releaseInfo":"2026","imdbRating":"7.8","genres":["Documentary"],"poster":"https://images.metahub.space/poster/small/tt32986423/img","type":"movie"},{"id":"tt34243725","name":"Wider than the Sky - Più grande del cielo","releaseInfo":"2025","imdbRating":"6.6","genres":["Documentary"],"poster":"https://images.metahub.space/poster/small/tt34243725/img","type":"movie"},{"id":"tt34266076","name":"Thoughtcrime","releaseInfo":"2025","imdbRating":"7.2","genres":["Documentary"],"poster":"https://images.metahub.space/poster/small/tt34266076/img","type":"movie"},{"id":"tt34625503","name":"Pusherman: Frank Lucas & The True Story of American Gangster","releaseInfo":"2025","imdbRating":"7.0","genres":["Documentary"],"poster":"https://images.metahub.space/poster/small/tt34625503/img","type":"movie"},{"id":"tt34876497","name":"The Line We Crossed","releaseInfo":"2025","imdbRating":"9.4","genres":["Documentary"],"poster":"https://images.metahub.space/poster/small/tt34876497/img","type":"movie"},{"id":"tt35298996","name":"Scars of a Putsch","releaseInfo":"2025","imdbRating":"7.3","genres":["Documentary"],"poster":"https://images.metahub.space/poster/small/tt35298996/img","type":"movie"},{"id":"tt35335041","name":"Solo pienso en ti","releaseInfo":"2025","imdbRating":"8.8","genres":["Documentary","Music"],"poster":"https://images.metahub.space/poster/small/tt35335041/img","type":"movie"},{"id":"tt35587625","name":"Shapes of Normal Human Beings","releaseInfo":"2025","imdbRating":"7.6","genres":["Documentary"],"poster":"https://images.metahub.space/poster/small/tt35587625/img","type":"movie"},{"id":"tt35619508","name":"Strandzha","releaseInfo":"2025","imdbRating":"6.3","genres":["Documentary"],"poster":"https://images.metahub.space/poster/small/tt35619508/img","type":"movie"},{"id":"tt35625318","name":"A Song Without Home","releaseInfo":"2026","imdbRating":"8.4","genres":["Documentary"],"poster":"https://images.metahub.space/poster/small/tt35625318/img","type":"movie"},{"id":"tt35652471","name":"Alexandra - Syns vi inte finns vi inte","releaseInfo":"2025","imdbRating":"7.6","genres":["Biography","Documentary"],"poster":"https://images.metahub.space/poster/small/tt35652471/img","type":"movie"},{"id":"tt35661021","name":"No Magic for Socialists","releaseInfo":"2025","imdbRating":"6.3","genres":["Documentary"],"poster":"https://images.metahub.space/poster/small/tt35661021/img","type":"movie"},{"id":"tt35679877","name":"Binniza, the Beings of the Clouds","releaseInfo":"2025","imdbRating":"2.8","genres":["Documentary","Fantasy"],"poster":"https://images.metahub.space/poster/small/tt35679877/img","type":"movie"},{"id":"tt35709148","name":"Unpacking the Lies We've Been Fed","releaseInfo":"2025","imdbRating":"7.2","genres":["Documentary"],"poster":"https://images.metahub.space/poster/small/tt35709148/img","type":"movie"},{"id":"tt35710303","name":"Seen the film","releaseInfo":"2025","imdbRating":"9.1","genres":["Documentary"],"poster":"https://images.metahub.space/poster/small/tt35710303/img","type":"movie"},{"id":"tt35877960","name":"American Theater","releaseInfo":"2025","imdbRating":"6.9","genres":["Documentary"],"poster":"https://images.metahub.space/poster/small/tt35877960/img","type":"movie"},{"id":"tt35933883","name":"Helen David's 37 Seasons","releaseInfo":"2025","imdbRating":"7.4","genres":["Documentary"],"poster":"https://images.metahub.space/poster/small/tt35933883/img","type":"movie"},{"id":"tt35956061","name":"Dolores Ibárruri. Pasionaria","releaseInfo":"2025","imdbRating":"6.8","genres":["Documentary"],"poster":"https://images.metahub.space/poster/small/tt35956061/img","type":"movie"},{"id":"tt35981903","name":"The Degenerate: The Life and Films of Andy Milligan","releaseInfo":"2025","imdbRating":"7.2","genres":["Documentary"],"poster":"https://images.metahub.space/poster/small/tt35981903/img","type":"movie"},{"id":"tt36036792","name":"Return to Homeland","releaseInfo":"2025","imdbRating":"6.3","genres":["Documentary"],"poster":"https://images.metahub.space/poster/small/tt36036792/img","type":"movie"},{"id":"tt36055847","name":"True to Our Inner Daemon","releaseInfo":"2025","imdbRating":"7.9","genres":["Documentary"],"poster":"https://images.metahub.space/poster/small/tt36055847/img","type":"movie"},{"id":"tt36057086","name":"'48: Resisting the Big Settlement","releaseInfo":"2025","imdbRating":"8.1","genres":["Documentary"],"poster":"https://images.metahub.space/poster/small/tt36057086/img","type":"movie"},{"id":"tt36110964","name":"News Without A Newsroom","releaseInfo":"2025","imdbRating":"8.2","genres":["Documentary"],"poster":"https://images.metahub.space/poster/small/tt36110964/img","type":"movie"},{"id":"tt36119484","name":"Cirkeline & den usynlige tegner","releaseInfo":"2025","imdbRating":"8.2","genres":["Animation","Biography","Documentary"],"poster":"https://images.metahub.space/poster/small/tt36119484/img","type":"movie"},{"id":"tt36316697","name":"Mani 80 pavasari","releaseInfo":"2025","imdbRating":"7.9","genres":["Documentary"],"poster":"https://images.metahub.space/poster/small/tt36316697/img","type":"movie"},{"id":"tt36319065","name":"Archyvu detektyvas","releaseInfo":"2025","imdbRating":"9.8","genres":["Documentary"],"poster":"https://images.metahub.space/poster/small/tt36319065/img","type":"movie"},{"id":"tt36353019","name":"Leaving Tallinn. 1941","releaseInfo":"2025","imdbRating":"7.4","genres":["Documentary"],"poster":"https://images.metahub.space/poster/small/tt36353019/img","type":"movie"},{"id":"tt36457428","name":"Montevideo Inolvidable","releaseInfo":"2025","imdbRating":"6.2","genres":["Documentary"],"poster":"https://images.metahub.space/poster/small/tt36457428/img","type":"movie"},{"id":"tt36459418","name":"My Dad's Lessons","releaseInfo":"2025","imdbRating":"7.7","genres":["Biography","Documentary"],"poster":"https://images.metahub.space/poster/small/tt36459418/img","type":"movie"},{"id":"tt36592989","name":"Changed Vol. 2","releaseInfo":"2025","imdbRating":"8.9","genres":["Documentary"],"poster":"https://images.metahub.space/poster/small/tt36592989/img","type":"movie"},{"id":"tt36596175","name":"Aging in America: Survive or Thrive","releaseInfo":"2025","imdbRating":"8.3","genres":["Documentary"],"poster":"https://images.metahub.space/poster/small/tt36596175/img","type":"movie"},{"id":"tt36687029","name":"The Gloria of Your Imagination","releaseInfo":"2025","imdbRating":"7.9","genres":["Documentary"],"poster":"https://images.metahub.space/poster/small/tt36687029/img","type":"movie"},{"id":"tt36711186","name":"Kurokawa no onna tachi","releaseInfo":"2025","imdbRating":"7.6","genres":["Documentary"],"poster":"https://images.metahub.space/poster/small/tt36711186/img","type":"movie"},{"id":"tt36907572","name":"Girl, Woman","releaseInfo":"2025","imdbRating":"8.0","genres":["Documentary"],"poster":"https://images.metahub.space/poster/small/tt36907572/img","type":"movie"},{"id":"tt36917030","name":"Szabadság a hegyen","releaseInfo":"2025","imdbRating":"9.0","genres":["Documentary"],"poster":"https://images.metahub.space/poster/small/tt36917030/img","type":"movie"},{"id":"tt37049970","name":"Citizen of Sun","releaseInfo":"2025","imdbRating":"7.6","genres":["Documentary"],"poster":"https://images.metahub.space/poster/small/tt37049970/img","type":"movie"},{"id":"tt37592938","name":"The Dreamer","releaseInfo":"2025","imdbRating":"6.8","genres":["Documentary"],"poster":"https://images.metahub.space/poster/small/tt37592938/img","type":"movie"},{"id":"tt37674717","name":"Paris 75: The European Cup Final Football Tried to Forget","releaseInfo":"2025","imdbRating":"7.7","genres":["Documentary"],"poster":"https://images.metahub.space/poster/small/tt37674717/img","type":"movie"},{"id":"tt37813085","name":"Palimpsest: The Story of a Name","releaseInfo":"2025","imdbRating":"7.5","genres":["Biography","Documentary","History"],"poster":"https://images.metahub.space/poster/small/tt37813085/img","type":"movie"},{"id":"tt37919188","name":"Riding with Death","releaseInfo":"2025","imdbRating":"7.3","genres":["Documentary"],"poster":"https://images.metahub.space/poster/small/tt37919188/img","type":"movie"},{"id":"tt37953484","name":"Those Who Say No!","releaseInfo":"2025","imdbRating":"1.8","genres":["Documentary"],"poster":"https://images.metahub.space/poster/small/tt37953484/img","type":"movie"},{"id":"tt37954397","name":"Heroic Cadets","releaseInfo":"2025","imdbRating":"1.7","genres":["Documentary"],"poster":"https://images.metahub.space/poster/small/tt37954397/img","type":"movie"},{"id":"tt38077025","name":"Thunderbirds: Fab at 60","releaseInfo":"2025","imdbRating":"7.9","genres":["Documentary"],"poster":"https://images.metahub.space/poster/small/tt38077025/img","type":"movie"},{"id":"tt38128163","name":"Pan Olbrychski","releaseInfo":"2025","imdbRating":"7.3","genres":["Biography","Documentary"],"poster":"https://images.metahub.space/poster/small/tt38128163/img","type":"movie"},{"id":"tt38494621","name":"In Passing","releaseInfo":"2025","imdbRating":"8.6","genres":["Documentary"],"poster":"https://images.metahub.space/poster/small/tt38494621/img","type":"movie"},{"id":"tt38497662","name":"Honestino","releaseInfo":"2025","imdbRating":"5.8","genres":["Documentary"],"poster":"https://images.metahub.space/poster/small/tt38497662/img","type":"movie"},{"id":"tt38639850","name":"I Love Lucca Comics & Games","releaseInfo":"2025","imdbRating":"6.7","genres":["Documentary"],"poster":"https://images.metahub.space/poster/small/tt38639850/img","type":"movie"},{"id":"tt38651269","name":"The Woman Who Poked the Leopard","releaseInfo":"2025","imdbRating":"7.4","genres":["Documentary"],"poster":"https://images.metahub.space/poster/small/tt38651269/img","type":"movie"},{"id":"tt38690060","name":"The Kartli Kingdom","releaseInfo":"2025","imdbRating":"8.6","genres":["Documentary"],"poster":"https://images.metahub.space/poster/small/tt38690060/img","type":"movie"},{"id":"tt38715684","name":"The Birth of Your Divinity","releaseInfo":"2025","imdbRating":"9.1","genres":["Documentary"],"poster":"https://images.metahub.space/poster/small/tt38715684/img","type":"movie"},{"id":"tt38734796","name":"When Nobody's Watching","releaseInfo":"2025","imdbRating":"7.9","genres":["Documentary"],"poster":"https://images.metahub.space/poster/small/tt38734796/img","type":"movie"},{"id":"tt38743588","name":"Our Body Is an Expanding Star","releaseInfo":"2025","imdbRating":"2.8","genres":["Documentary"],"poster":"https://images.metahub.space/poster/small/tt38743588/img","type":"movie"},{"id":"tt38783848","name":"Kosmos","releaseInfo":"2025","imdbRating":"7.9","genres":["Documentary"],"poster":"https://images.metahub.space/poster/small/tt38783848/img","type":"movie"},{"id":"tt38790586","name":"Mountains of the Moon","releaseInfo":"2025","imdbRating":"8.9","genres":["Documentary","Music","Sport"],"poster":"https://images.metahub.space/poster/small/tt38790586/img","type":"movie"},{"id":"tt38953112","name":"Risha","releaseInfo":"2025","imdbRating":"9.6","genres":["Documentary"],"poster":"https://images.metahub.space/poster/small/tt38953112/img","type":"movie"},{"id":"tt39028290","name":"Notes from the Woods","releaseInfo":"2025","imdbRating":"8.4","genres":["Documentary"],"poster":"https://images.metahub.space/poster/small/tt39028290/img","type":"movie"},{"id":"tt39300414","name":"In search of treasures","releaseInfo":"2025","imdbRating":"7.8","genres":["Documentary"],"poster":"https://images.metahub.space/poster/small/tt39300414/img","type":"movie"},{"id":"tt39300443","name":"In search of treasures 2","releaseInfo":"2025","imdbRating":"7.8","genres":["Documentary"],"poster":"https://images.metahub.space/poster/small/tt39300443/img","type":"movie"},{"id":"tt39316737","name":"FA Cup: The People's Story","releaseInfo":"2026","imdbRating":"8.8","genres":["Documentary"],"poster":"https://images.metahub.space/poster/small/tt39316737/img","type":"movie"},{"id":"tt39368474","name":"Black Zombie","releaseInfo":"2026","imdbRating":"9.6","genres":["Documentary","History","Horror"],"poster":"https://images.metahub.space/poster/small/tt39368474/img","type":"movie"},{"id":"tt39383353","name":"Collapse","releaseInfo":"2026","imdbRating":"8.5","genres":["Documentary"],"poster":"https://images.metahub.space/poster/small/tt39383353/img","type":"movie"},{"id":"tt39388742","name":"Sovereign Son","releaseInfo":"2026","imdbRating":"9.5","genres":["Documentary"],"poster":"https://images.metahub.space/poster/small/tt39388742/img","type":"movie"},{"id":"tt39793111","name":"Whispers in May","releaseInfo":"2026","imdbRating":"7.5","genres":["Documentary"],"poster":"https://images.metahub.space/poster/small/tt39793111/img","type":"movie"},{"id":"tt39846658","name":"Not Welcome: The Battle to Stop the Boats","releaseInfo":"2026","imdbRating":"6.0","genres":["Documentary"],"poster":"https://images.metahub.space/poster/small/tt39846658/img","type":"movie"},{"id":"tt39948152","name":"Hex","releaseInfo":"2026","imdbRating":"6.2","genres":["Documentary","Music"],"poster":"https://images.metahub.space/poster/small/tt39948152/img","type":"movie"},{"id":"tt39949871","name":"Just Look Up","releaseInfo":"2026","imdbRating":"9.0","genres":["Documentary"],"poster":"https://images.metahub.space/poster/small/tt39949871/img","type":"movie"},{"id":"tt40554259","name":"Conscious","releaseInfo":"2026","imdbRating":"9.6","genres":["Documentary"],"poster":"https://images.metahub.space/poster/small/tt40554259/img","type":"movie"},{"id":"tt40868369","name":"Invisible Enemy","releaseInfo":"2026","imdbRating":"7.5","genres":["Documentary"],"poster":"https://images.metahub.space/poster/small/tt40868369/img","type":"movie"},{"id":"tt6352510","name":"The Last Partera","releaseInfo":"2025","imdbRating":"9.0","genres":["Documentary"],"poster":"https://images.metahub.space/poster/small/tt6352510/img","type":"movie"},{"id":"tt7991490","name":"A Little Fellow: The Legacy of A.P. Giannini","releaseInfo":"2025","imdbRating":"8.9","genres":["Documentary"],"poster":"https://images.metahub.space/poster/small/tt7991490/img","type":"movie"}]}