{"schema":"1.0","catalog":"series_popular","generatedAt":"2026-04-15T05:16:44Z","page":24,"totalPages":24,"totalItems":46035,"itemsPerPage":2000,"itemsOnPage":35,"hasNext":false,"hasPrev":true,"nextUrl":null,"prevUrl":"https://raw.githubusercontent.com/shade-sdev/shadestream/refs/heads/master/catalog/series_popular/page_23.json","items":[{"id":"tt39304227","name":"Tutoring My Enemy","releaseInfo":"2026","imdbRating":"6.2","genres":["Romance"],"poster":"https://images.metahub.space/poster/small/tt39304227/img","type":"series"},{"id":"tt39305428","name":"Pandora","releaseInfo":"2026","imdbRating":"5.9","genres":["Reality-TV"],"poster":"https://images.metahub.space/poster/small/tt39305428/img","type":"series"},{"id":"tt39306829","name":"Crimen por encargo","releaseInfo":"2025","imdbRating":"7.1","genres":["Documentary"],"poster":"https://images.metahub.space/poster/small/tt39306829/img","type":"series"},{"id":"tt39310649","name":"Brothers in Arms","releaseInfo":"2026","imdbRating":"6.4","genres":["Biography","Drama","History"],"poster":"https://images.metahub.space/poster/small/tt39310649/img","type":"series"},{"id":"tt39311948","name":"Bharat Ke Super Founders","releaseInfo":"2026","imdbRating":"7.9","genres":["Reality-TV"],"poster":"https://images.metahub.space/poster/small/tt39311948/img","type":"series"},{"id":"tt39325379","name":"Will You Be My Manager?","releaseInfo":"2025","imdbRating":"6.7","genres":["Drama"],"poster":"https://images.metahub.space/poster/small/tt39325379/img","type":"series"},{"id":"tt39327179","name":"Jarc Animworld","releaseInfo":"2026","imdbRating":"8.6","genres":["Animation"],"poster":"https://images.metahub.space/poster/small/tt39327179/img","type":"series"},{"id":"tt39375466","name":"Mirai no Musuko","releaseInfo":"2026","imdbRating":"7.4","genres":[],"poster":"https://images.metahub.space/poster/small/tt39375466/img","type":"series"},{"id":"tt39388307","name":"Hadhi Akhretha","releaseInfo":"2026","imdbRating":"5.2","genres":["Comedy"],"poster":"https://images.metahub.space/poster/small/tt39388307/img","type":"series"},{"id":"tt39391474","name":"JJ's Unteachables","releaseInfo":"2025","imdbRating":"8.1","genres":["Adventure","Animation","Comedy"],"poster":"https://images.metahub.space/poster/small/tt39391474/img","type":"series"},{"id":"tt39576826","name":"¿Quién hace la...?","releaseInfo":"2026","imdbRating":"1.0","genres":["Comedy"],"poster":"https://images.metahub.space/poster/small/tt39576826/img","type":"series"},{"id":"tt39599020","name":"How to Break Up with the Campus Crush","releaseInfo":"2026","imdbRating":"8.0","genres":["Drama"],"poster":"https://images.metahub.space/poster/small/tt39599020/img","type":"series"},{"id":"tt39697858","name":"The Betrayed and Abandoned Son of Ashford","releaseInfo":"2026","imdbRating":"6.9","genres":["Drama"],"poster":"https://images.metahub.space/poster/small/tt39697858/img","type":"series"},{"id":"tt39905362","name":"Tod Kar Dil Mera","releaseInfo":"2026","imdbRating":"7.3","genres":["Drama","Romance"],"poster":"https://images.metahub.space/poster/small/tt39905362/img","type":"series"},{"id":"tt40055001","name":"Prison Break: Don't Mess with My Daughter","releaseInfo":"2026","imdbRating":"8.9","genres":["Drama"],"poster":"https://images.metahub.space/poster/small/tt40055001/img","type":"series"},{"id":"tt40062765","name":"Mute But Deadly","releaseInfo":"2026","imdbRating":"7.9","genres":["Romance"],"poster":"https://images.metahub.space/poster/small/tt40062765/img","type":"series"},{"id":"tt40128270","name":"I tjeneste for Norge","releaseInfo":"2026","imdbRating":"8.2","genres":["Documentary","War"],"poster":"https://images.metahub.space/poster/small/tt40128270/img","type":"series"},{"id":"tt40128277","name":"Fasana Mart Ka","releaseInfo":"2026","imdbRating":"8.7","genres":["Comedy"],"poster":"https://images.metahub.space/poster/small/tt40128277/img","type":"series"},{"id":"tt40145281","name":"10 istorii o lyubvi i smerti","releaseInfo":"2026","imdbRating":"5.5","genres":["Action"],"poster":"https://images.metahub.space/poster/small/tt40145281/img","type":"series"},{"id":"tt40207171","name":"Drama en la Chamba","releaseInfo":"2026","imdbRating":"1.0","genres":["Comedy"],"poster":"https://images.metahub.space/poster/small/tt40207171/img","type":"series"},{"id":"tt40333666","name":"Say It If You Love Me","releaseInfo":"2026","imdbRating":"8.0","genres":["Romance"],"poster":"https://images.metahub.space/poster/small/tt40333666/img","type":"series"},{"id":"tt40499082","name":"Scammer Saaga","releaseInfo":"2025","imdbRating":"8.8","genres":["Action","Animation","Drama"],"poster":"https://images.metahub.space/poster/small/tt40499082/img","type":"series"},{"id":"tt40510509","name":"Idiot Boss Fired Me","releaseInfo":"2026","imdbRating":"8.7","genres":[],"poster":"https://images.metahub.space/poster/small/tt40510509/img","type":"series"},{"id":"tt40657826","name":"Cut Ties, Now They Kneel!","releaseInfo":"2026","imdbRating":"8.8","genres":["Drama"],"poster":"https://images.metahub.space/poster/small/tt40657826/img","type":"series"},{"id":"tt40724747","name":"Fotbollsmiljonerna som försvann","releaseInfo":"2026","imdbRating":"7.8","genres":["Documentary","Sport"],"poster":"https://images.metahub.space/poster/small/tt40724747/img","type":"series"},{"id":"tt40736083","name":"Arrière li qoddem S2","releaseInfo":"2026","imdbRating":"8.7","genres":["Fantasy"],"poster":"https://images.metahub.space/poster/small/tt40736083/img","type":"series"},{"id":"tt40761451","name":"Ambiguity","releaseInfo":"2026","imdbRating":"8.7","genres":["Drama"],"poster":"https://images.metahub.space/poster/small/tt40761451/img","type":"series"},{"id":"tt40845421","name":"Stupidize","releaseInfo":"2026","imdbRating":"1.0","genres":["Animation"],"poster":"https://images.metahub.space/poster/small/tt40845421/img","type":"series"},{"id":"tt40887395","name":"Lyckad","releaseInfo":"2026","imdbRating":"4.9","genres":["Drama"],"poster":"https://images.metahub.space/poster/small/tt40887395/img","type":"series"},{"id":"tt40902148","name":"Cashfall","releaseInfo":"2026","imdbRating":"9.1","genres":["Thriller"],"poster":"https://images.metahub.space/poster/small/tt40902148/img","type":"series"},{"id":"tt40913908","name":"The Matter of Facts","releaseInfo":"2026","imdbRating":"6.9","genres":[],"poster":"https://images.metahub.space/poster/small/tt40913908/img","type":"series"},{"id":"tt41082344","name":"We Were There","releaseInfo":"2026","imdbRating":"9.0","genres":["Documentary","Sport"],"poster":"https://images.metahub.space/poster/small/tt41082344/img","type":"series"},{"id":"tt41308939","name":"Divorced Commissioner Strikes Back","releaseInfo":"2026","imdbRating":"8.2","genres":["Thriller"],"poster":"https://images.metahub.space/poster/small/tt41308939/img","type":"series"},{"id":"tt41356421","name":"The Summer I Turned My Sexiest","releaseInfo":"2026","imdbRating":"9.6","genres":["Drama"],"poster":"https://images.metahub.space/poster/small/tt41356421/img","type":"series"},{"id":"tt41597142","name":"Being Fired? Now I'm Out of Their League!","releaseInfo":"2026","imdbRating":"7.9","genres":["Drama"],"poster":"https://images.metahub.space/poster/small/tt41597142/img","type":"series"}]}