{"schema":"1.0","catalog":"series_latest","generatedAt":"2026-04-13T16:22:03Z","page":24,"totalPages":24,"totalItems":46013,"itemsPerPage":2000,"itemsOnPage":13,"hasNext":false,"hasPrev":true,"nextUrl":null,"prevUrl":"https://raw.githubusercontent.com/shade-sdev/shadestream/refs/heads/master/catalog/series_latest/page_23.json","items":[{"id":"tt0040021","name":"Actor's Studio","releaseInfo":"1948","imdbRating":"6.9","genres":["Drama"],"poster":"https://images.metahub.space/poster/small/tt0040021/img","type":"series"},{"id":"tt0149490","name":"Meet the Press","releaseInfo":"1947","imdbRating":"5.4","genres":["News","Talk-Show"],"poster":"https://images.metahub.space/poster/small/tt0149490/img","type":"series"},{"id":"tt0165594","name":"The Howdy Doody Show","releaseInfo":"1947","imdbRating":"7.5","genres":["Family"],"poster":"https://images.metahub.space/poster/small/tt0165594/img","type":"series"},{"id":"tt0039123","name":"Kraft Theatre","releaseInfo":"1947","imdbRating":"7.9","genres":["Drama"],"poster":"https://images.metahub.space/poster/small/tt0039123/img","type":"series"},{"id":"tt0159886","name":"Kukla, Fran and Ollie","releaseInfo":"1947","imdbRating":"7.8","genres":["Comedy","Family"],"poster":"https://images.metahub.space/poster/small/tt0159886/img","type":"series"},{"id":"tt0042130","name":"Stump the Stars","releaseInfo":"1947","imdbRating":"8.0","genres":["Game-Show"],"poster":"https://images.metahub.space/poster/small/tt0042130/img","type":"series"},{"id":"tt0041037","name":"Lights Out","releaseInfo":"1946","imdbRating":"7.0","genres":["Horror","Mystery","Sci-Fi"],"poster":"https://images.metahub.space/poster/small/tt0041037/img","type":"series"},{"id":"tt33337551","name":"Looney Tunes Golden Collection: Volume 1","releaseInfo":"1946","imdbRating":"8.6","genres":["Animation"],"poster":"https://images.metahub.space/poster/small/tt33337551/img","type":"series"},{"id":"tt0189246","name":"CBS Evening News","releaseInfo":"1941","imdbRating":"6.7","genres":["News"],"poster":"https://images.metahub.space/poster/small/tt0189246/img","type":"series"},{"id":"tt10573354","name":"The CBS Evening News","releaseInfo":"1941","imdbRating":"4.5","genres":["News"],"poster":"https://images.metahub.space/poster/small/tt10573354/img","type":"series"},{"id":"tt3770700","name":"Wimbledon","releaseInfo":"1937","imdbRating":"7.9","genres":["Sport"],"poster":"https://images.metahub.space/poster/small/tt3770700/img","type":"series"},{"id":"tt0029778","name":"Wild West Days","releaseInfo":"1937","imdbRating":"6.3","genres":["Western"],"poster":"https://images.metahub.space/poster/small/tt0029778/img","type":"series"},{"id":"tt12226696","name":"LaLiga","releaseInfo":"1929","imdbRating":"7.0","genres":["Sport"],"poster":"https://images.metahub.space/poster/small/tt12226696/img","type":"series"}]}